%YAML 1.1
%TAG !u! tag:unity3d.com,2011:
--- !u!1045 &1
EditorBuildSettings:
  m_ObjectHideFlags: 0
  serializedVersion: 2
  m_Scenes:
  - enabled: 1
    path: Assets/Scenes/StartScene.unity
    guid: 9308c7251c8b01646a1ccdc2a4a57e55
  - enabled: 1
    path: Assets/Scenes/StageScene.unity
    guid: e9c26f89cbdd70a47a0a8ba619e6cfba
  - enabled: 1
    path: Assets/Scenes/UIScene.unity
    guid: 294d226be4f65fa46b0fd6cc19dc12dd
  m_configObjects:
    com.unity.adaptiveperformance.google.android.provider_settings: {fileID: 11400000,
      guid: 9ca906436aa98b648af6118b1c43e4b0, type: 2}
    com.unity.adaptiveperformance.loader_settings: {fileID: 11400000, guid: ee2de7f8a980c4647bf1faf1d6ea21be,
      type: 2}
    com.unity.adaptiveperformance.samsung.android.provider_settings: {fileID: 11400000,
      guid: 93a1fa91d5d2d584e864d97f7d1c99ab, type: 2}
    com.unity.adaptiveperformance.simulator.provider_settings: {fileID: 11400000,
      guid: 5125342b860332f49a64f6391511f113, type: 2}
